1
Ivanov I. I.
Driver
0
0
200

2
Petrova G. I.
Cleaner
0
0
170

3
Sergeev S. V.
Programmer
0
0
App-078-x-02
0.1
300
500000

4
Botkin D. S.
Programmer
0
0
App-078-x-02
0.1
310
500000

5
Demidov A. D.
Tester
0
0
App-078-x-02
0.1
310
500000

6
Artemov N. V.
TeamLeader
0
0
App-078-x-02
0.15
330
500000
3
200

7
Losev D. T.
Manager
0
0
App-078-x-02
0.2
500000

8
Nikitin A. A.
ProjectManager
0
0
App-078-x-02
0.25
500000
5
300

9
Gorelov I. L.
Programmer
0
0
Sftwr-1pq	
0.1
315
500000

10
Novikov Y. Y.
Programmer
0
0
Sftwr-1pq
0.1
320
500000

11
Morozov V. I.
Tester
0
0
Sftwr-1pq
0.1
315
500000

12
Kirillov A. V.
TeamLeader
0
0
Sftwr-1pq
0.15
330
500000
3
220

13
Mokeev S. P.
Manager
0
0
Sftwr-01pq
0.2
500000

14
Pavlov A. D.
ProjectManager
0
0
Sftwr-01pq
0.25
500000
5
330

15
Nosov V. I.
SeniorManager
0
0
App-078-x-02, Sftwr-01pq
0.1
500000
12
300
2

16
Tolmachev I. P.
Programmer
0
0
VrtRlt-25zero1
0.1
320
700000

17
Zhegalkin V. Y.
Programmer
0
0
VrtRlt-25zero1
0.1
315
700000

18
Nikolaev E. N.
Tester
0
0
VrtRlt-25zero1
0.1
325
700000

19
Domrachev S. V.
TeamLeader
0
0
VrtRlt-25zero1
0.15
330
700000
3
280

20
Pontryagin K. D.
Manager
0
0
VrtRlt-25zero1
0.2
700000

21
Semenov V. D.
ProjectManager
0
0
VrtRlt-25zero1
0.25
700000
5
350

22
Chapaev V. A.
Programmer
0
0
?dx_1
0.1
340
700000

23
Rylkov R. R.
Programmer
0
0
?dx_1
0.1
325
700000

24
Stepanov S. R.
Tester
0
0
?dx_1
0.1
330
700000

25
Vdovin A. G.
TeamLeader
0
0
?dx_1
0.15
345
700000
3
280

26
Bolshakov D. D.
Manager
0
0
?dx_1
0.2
700000

27
Studin V. D.
ProjectManager
0
0
?dx_1
0.25
700000
5
400

28
Korchagin R. I.
SeniorManager
0
0
VrtRlt-25zero1, ?dx_1
0.1
700000
12
350
2

29
Fedorov D. F.
Driver
0
0
250

30
Volontarev I. I.
Driver
0
0
265

31
Vadimov S. R.
Programmer
0
0
qq_02
0.2
330
750000

32
Golikov D. T.
Tester
0
0
qq_02
0.2
330
750000

33
Astorbaev T. T.
TeamLeader
0
0
qq_02
0.2
350
750000
2
290

34
Valerianov G. R.
Manager
0
0
qq_02
0.1
750000

35
Stasov N. M.
ProjectManager
0
0
qq_02
0.2
750000
4
400

36
Molostov T. R.
Programmer
0
0
-xxp-
0.11
700
750000

37
Romanov D. T.
Tester
0
0
-xxp-
0.09
650
750000

38
Antohin L. G.
TeamLeader
0
0
-xxp-
0.2
750
750000
2
250

39
Gorshkov V. P.
Manager
0
0
-xxp-
0.2
750000

40
Loshkarev N. M.
ProjectManager
0
0
-xxp-
0.3
750000
4
400

41
Likholat M. I.
SeniorManager
0
0
qq_02, -xxp-
0.1
750000
5
700
2